<?xml version="1.0" encoding="UTF-8" standalone="no"?>
<svg
   xmlns:dc="http://purl.org/dc/elements/1.1/"
   xmlns:cc="http://creativecommons.org/ns#"
   xmlns:rdf="http://www.w3.org/1999/02/22-rdf-syntax-ns#"
   xmlns:svg="http://www.w3.org/2000/svg"
   xmlns="http://www.w3.org/2000/svg"
   xmlns:sodipodi="http://sodipodi.sourceforge.net/DTD/sodipodi-0.dtd"
   xmlns:inkscape="http://www.inkscape.org/namespaces/inkscape"
   width="1000"
   height="1000"
   viewBox="0 0 264.58334 264.58333"
   version="1.1"
   id="svg8"
   inkscape:version="1.0.2 (e86c870879, 2021-01-15)"
   sodipodi:docname="logo.svg"
   inkscape:export-filename="/home/guest/.config/awesome/.config/awesome/logo.png"
   inkscape:export-xdpi="95.999992"
   inkscape:export-ydpi="95.999992">
  <defs
     id="defs2" />
  <sodipodi:namedview
     id="base"
     pagecolor="#ffffff"
     bordercolor="#666666"
     borderopacity="1.0"
     inkscape:pageopacity="0.0"
     inkscape:pageshadow="2"
     inkscape:zoom="0.5"
     inkscape:cx="480.93418"
     inkscape:cy="521.75158"
     inkscape:document-units="mm"
     inkscape:current-layer="layer1"
     inkscape:document-rotation="0"
     showgrid="false"
     units="px"
     width="500px"
     showguides="false"
     inkscape:guide-bbox="true"
     inkscape:snap-midpoints="true"
     inkscape:snap-smooth-nodes="true"
     inkscape:snap-intersection-paths="true"
     inkscape:snap-bbox="true"
     inkscape:bbox-nodes="true"
     inkscape:snap-bbox-edge-midpoints="true"
     inkscape:snap-text-baseline="false"
     inkscape:window-width="1920"
     inkscape:window-height="1080"
     inkscape:window-x="0"
     inkscape:window-y="-24"
     inkscape:window-maximized="1">
    <sodipodi:guide
       position="140.21793,191.43001"
       orientation="0.9795811,0.20104941"
       id="guide41" />
    <sodipodi:guide
       position="168.79284,191.43001"
       orientation="1,0"
       id="guide898" />
    <sodipodi:guide
       position="86.137269,130.4702"
       orientation="1,0"
       id="guide912" />
    <sodipodi:guide
       position="174.50782,130.4702"
       orientation="1,0"
       id="guide914" />
  </sodipodi:namedview>
  <metadata
     id="metadata5">
    <rdf:RDF>
      <cc:Work
         rdf:about="">
        <dc:format>image/svg+xml</dc:format>
        <dc:type
           rdf:resource="http://purl.org/dc/dcmitype/StillImage" />
        <dc:title></dc:title>
      </cc:Work>
    </rdf:RDF>
  </metadata>
  <g
     inkscape:label="Layer 1"
     inkscape:groupmode="layer"
     id="layer1">
    <rect
       style="opacity:1;fill:#cccccc;fill-opacity:1;stroke:none;stroke-width:0;stroke-linecap:round;stroke-miterlimit:4;stroke-dasharray:none"
       id="rect57"
       width="264.58334"
       height="264.58334"
       x="0"
       y="0" />
    <g
       id="g976"
       transform="matrix(1.3112418,0,0,1.3112418,-38.981022,-36.371549)">
      <g
         aria-label="Æ"
         id="text20"
         style="font-style:normal;font-variant:normal;font-weight:bold;font-stretch:normal;font-size:105.833px;line-height:125%;font-family:'Fira Sans';-inkscape-font-specification:'Fira Sans Bold';letter-spacing:0px;word-spacing:0px;fill:#000000;fill-opacity:1;stroke:none;stroke-width:0.264583px;stroke-linecap:butt;stroke-linejoin:miter;stroke-opacity:1">
        <path
           d="m 150.16623,121.62483 -3.80999,-18.52077 H 169.6395 V 90.933265 h -25.82325 l -3.59832,-17.779944 h 28.57491 L 170.592,60.77086 h -32.91545 -22.75271 l -28.786573,73.34227 h 18.626613 l 5.29165,-15.76912 h 22.75409 l 2.75166,15.76912 h 17.16805 21.77849 v -12.4883 z m -35.87738,-15.87495 10.79496,-32.27906 5.60915,32.27906 z"
           style="font-style:normal;font-variant:normal;font-weight:bold;font-stretch:normal;font-size:105.833px;font-family:'Fira Sans';-inkscape-font-specification:'Fira Sans Bold';fill:#0000ff;stroke-width:0.264583px"
           id="path22"
           sodipodi:nodetypes="ccccccccccccccccccccccc" />
        <path
           d="m 150.16623,121.62483 -3.80999,-18.52077 -2.53999,-12.170795 -3.59832,-17.779944 -2.54138,-12.382461 h -22.75271 l -28.786573,73.34227 h 18.626613 l 5.29165,-15.76912 h 22.75409 l 2.75166,15.76912 h 17.16805 z m -35.87738,-15.87495 10.79496,-32.27906 5.60915,32.27906 z"
           style="font-style:normal;font-variant:normal;font-weight:bold;font-stretch:normal;font-size:105.833px;font-family:'Fira Sans';-inkscape-font-specification:'Fira Sans Bold';stroke-width:0.264583px"
           id="path49"
           sodipodi:nodetypes="ccccccccccccccccc" />
      </g>
      <text
         xml:space="preserve"
         style="font-style:normal;font-variant:normal;font-weight:500;font-stretch:normal;font-size:22.776px;line-height:125%;font-family:'Fira Sans';-inkscape-font-specification:'Fira Sans Medium';letter-spacing:0px;word-spacing:0px;fill:#000000;fill-opacity:1;stroke:none;stroke-width:0.23725px;stroke-linecap:butt;stroke-linejoin:miter;stroke-opacity:1"
         x="85.863953"
         y="163.1971"
         id="text904"><tspan
           sodipodi:role="line"
           x="85.863953"
           y="163.1971"
           style="font-style:normal;font-variant:normal;font-weight:500;font-stretch:normal;font-size:22.776px;font-family:'Fira Sans';-inkscape-font-specification:'Fira Sans Medium';fill:#000000;stroke-width:0.23725px"
           id="tspan906">Sv<tspan
   style="fill:#000000"
   id="tspan920">a</tspan>lb<tspan
   style="fill:#000000"
   id="tspan922">a</tspan>rd</tspan><tspan
           sodipodi:role="line"
           x="85.863953"
           y="191.6671"
           style="font-style:normal;font-variant:normal;font-weight:500;font-stretch:normal;font-size:22.776px;font-family:'Fira Sans';-inkscape-font-specification:'Fira Sans Medium';fill:#000000;stroke-width:0.23725px"
           id="tspan910">Th<tspan
   style="fill:#000000"
   id="tspan916">e</tspan>m<tspan
   style="fill:#000000"
   id="tspan918">e</tspan></tspan></text>
      <text
         xml:space="preserve"
         style="font-style:normal;font-variant:normal;font-weight:500;font-stretch:normal;font-size:7.94249px;line-height:125%;font-family:'Fira Sans';-inkscape-font-specification:'Fira Sans Medium';letter-spacing:0px;word-spacing:0px;fill:#ffffff;fill-opacity:1;stroke:none;stroke-width:0.166921px;stroke-linecap:butt;stroke-linejoin:miter;stroke-opacity:1"
         x="115.30458"
         y="206.83255"
         id="text936"><tspan
           sodipodi:role="line"
           x="115.30458"
           y="206.83255"
           style="font-style:normal;font-variant:normal;font-weight:500;font-stretch:normal;font-size:7.94249px;font-family:'Fira Sans';-inkscape-font-specification:'Fira Sans Medium';fill:#ffffff;stroke-width:0.166921px"
           id="tspan934">for AwesomeWM</tspan></text>
    </g>
  </g>
</svg>
